Lab2/simulation/qsim/Lab2.msim.vcd
$comment
	File created using the following command:
		vcd file Lab2.msim.vcd -direction
$end
$date
	Fri Feb 09 14:40:10 2018
$end
$version
	ModelSim Version 10.1d
$end
$timescale
	1ps
$end
$scope module Lab2_vlg_vec_tst $end
$var reg 1 ! A0 $end
$var reg 1 " A1 $end
$var reg 1 # A2 $end
$var reg 1 $ A3 $end
$var reg 1 % B0 $end
$var reg 1 & B1 $end
$var reg 1 ' B2 $end
$var reg 1 ( B3 $end
$var reg 1 ) MODE $end
$var wire 1 * Cout $end
$var wire 1 + S0 $end
$var wire 1 , S1 $end
$var wire 1 - S2 $end
$var wire 1 . S3 $end
$var wire 1 / sampler $end
$scope module i1 $end
$var wire 1 0 gnd $end
$var wire 1 1 vcc $end
$var wire 1 2 unknown $end
$var tri1 1 3 devclrn $end
$var tri1 1 4 devpor $end
$var tri1 1 5 devoe $end
$var wire 1 6 MODE~combout $end
$var wire 1 7 A3~combout $end
$var wire 1 8 B3~combout $end
$var wire 1 9 B2~combout $end
$var wire 1 : A0~combout $end
$var wire 1 ; B0~combout $end
$var wire 1 < inst|inst|inst5~0_combout $end
$var wire 1 = A1~combout $end
$var wire 1 > B1~combout $end
$var wire 1 ? inst|inst1|inst5~0_combout $end
$var wire 1 @ inst|inst2|inst5~0_combout $end
$var wire 1 A inst|inst3|inst5~0_combout $end
$var wire 1 B inst|inst|inst4~0_combout $end
$var wire 1 C inst|inst1|inst4~combout $end
$var wire 1 D A2~combout $end
$var wire 1 E inst|inst2|inst4~0_combout $end
$var wire 1 F inst|inst3|inst4~0_combout $end
$upscope $end
$upscope $end
$enddefinitions $end
#0
$dumpvars
1!
0"
1#
0$
1%
0&
0'
0(
0)
0*
0+
1,
1-
0.
x/
00
11
x2
13
14
15
06
07
08
09
1:
1;
1<
0=
0>
0?
0@
0A
0B
1C
1D
1E
0F
$end
#100000
1"
1=
0/
0C
1?
0E
1@
0,
1F
0-
1.
#200000
1(
1'
1&
18
19
1>
1/
0F
1A
1E
1C
0.
1*
1-
1,
#300000
1$
0#
0%
0"
17
0D
0;
0=
0/
1F
0E
1B
0<
0C
1C
0?
1.
0-
1+
0,
1E
0@
1,
0F
1-
0.
#400000
0!
1"
0:
1=
1/
0B
0C
1?
0E
1@
0+
0,
1F
0-
1.
#500000
0&
1#
1!
0"
0>
1D
1:
0=
0/
0?
1E
1B
0E
1-
1+
0-
#600000
0(
0'
0$
0#
0!
08
09
07
0D
0:
1/
0A
0@
0B
0F
0*
0+
0.
#700000
1)
1%
1#
1!
16
1;
1D
1:
0/
1F
1C
1@
1<
0F
1A
0C
1?
1.
1,
1E
0.
1*
0,
1-
#800000
1"
1=
1/
1C
1,
#900000
1&
1(
1'
1>
18
19
0/
0C
1F
0A
0E
0,
1.
0*
0-
#1000000
1$
0%
0#
0"
17
0;
0D
0=
1/
0F
1A
1B
1E
0@
1C
0?
1F
0A
0E
0.
1*
1+
1-
1,
1.
0*
0-
#1100000
0!
1"
0:
1=
0/
0B
0C
1?
1E
0+
0,
1-
#1200000
0&
1#
1!
0"
0>
1D
1:
0=
1/
0E
1@
1B
0F
1A
0-
1+
0.
1*
#1300000
0)
0(
0'
0$
0#
0!
06
08
09
07
0D
0:
0/
1F
1E
1C
0A
0@
0?
0<
0B
0F
0E
0C
1.
1-
1,
0*
0+
0.
0-
0,
