ProgramCounter/simulation/qsim/ProgramCounter.msim.vcd
$comment
	File created using the following command:
		vcd file ProgramCounter.msim.vcd -direction
$end
$date
	Fri Apr 20 16:11:25 2018
$end
$version
	ModelSim Version 10.1d
$end
$timescale
	1ps
$end
$scope module ProgramCounter_vlg_vec_tst $end
$var reg 1 ! CLR $end
$var reg 4 " Din [0:3] $end
$var reg 1 # LD $end
$var reg 1 $ UP $end
$var wire 1 % Dout [0] $end
$var wire 1 & Dout [1] $end
$var wire 1 ' Dout [2] $end
$var wire 1 ( Dout [3] $end
$var wire 1 ) sampler $end
$scope module i1 $end
$var wire 1 * gnd $end
$var wire 1 + vcc $end
$var wire 1 , unknown $end
$var tri1 1 - devclrn $end
$var tri1 1 . devpor $end
$var tri1 1 / devoe $end
$var wire 1 0 inst|21~combout $end
$var wire 1 1 inst|51~combout $end
$var wire 1 2 inst|5~combout $end
$var wire 1 3 UP~combout $end
$var wire 1 4 LD~combout $end
$var wire 1 5 CLR~combout $end
$var wire 1 6 inst|88~0_combout $end
$var wire 1 7 inst|55~combout $end
$var wire 1 8 inst|23~1_combout $end
$var wire 1 9 inst|23~3_combout $end
$var wire 1 : inst|23~0_combout $end
$var wire 1 ; inst|23~_emulated_regout $end
$var wire 1 < inst|23~2_combout $end
$var wire 1 = inst|54~combout $end
$var wire 1 > inst|87~0_combout $end
$var wire 1 ? inst|24~1_combout $end
$var wire 1 @ inst|24~3_combout $end
$var wire 1 A inst|24~0_combout $end
$var wire 1 B inst|24~_emulated_regout $end
$var wire 1 C inst|24~2_combout $end
$var wire 1 D inst|53~combout $end
$var wire 1 E inst|86~0_combout $end
$var wire 1 F inst|25~1_combout $end
$var wire 1 G inst|25~3_combout $end
$var wire 1 H inst|25~0_combout $end
$var wire 1 I inst|25~_emulated_regout $end
$var wire 1 J inst|25~2_combout $end
$var wire 1 K inst|52~combout $end
$var wire 1 L inst|85~0_combout $end
$var wire 1 M inst|26~1_combout $end
$var wire 1 N inst|26~3_combout $end
$var wire 1 O inst|26~0_combout $end
$var wire 1 P inst|26~_emulated_regout $end
$var wire 1 Q inst|26~2_combout $end
$var wire 1 R Din~combout [0] $end
$var wire 1 S Din~combout [1] $end
$var wire 1 T Din~combout [2] $end
$var wire 1 U Din~combout [3] $end
$upscope $end
$upscope $end
$enddefinitions $end
#0
$dumpvars
0!
b0 "
1#
0$
0(
0'
0&
0%
x)
0*
1+
x,
1-
1.
1/
10
11
12
03
14
05
16
07
08
19
1:
0;
0<
0=
1>
0?
1@
1A
0B
0C
0D
1E
0F
1G
1H
0I
0J
0K
1L
0M
1N
1O
0P
0Q
0U
0T
0S
0R
$end
#20000
1!
15
0)
0L
0E
0>
06
0O
0H
0A
0:
#40000
0!
05
1)
1L
1E
1>
16
1O
1H
1A
1:
#60000
1!
15
0)
0L
0E
0>
06
0O
0H
0A
0:
#80000
1$
13
1)
#100000
0$
03
0)
1P
1Q
0N
1(
#120000
1$
13
1)
02
#140000
0$
03
0)
12
1I
0P
1J
0Q
0G
1N
1'
0(
#160000
1$
13
1)
#180000
0$
03
0)
1P
1Q
0N
1(
#200000
1$
13
1)
02
01
#220000
0$
03
0)
12
11
0I
1B
0P
0J
1C
0Q
1G
0@
1N
0'
1&
0(
#240000
1$
13
1)
#260000
0$
03
0)
1P
1Q
0N
1(
#280000
1$
13
1)
02
#300000
0$
03
0)
12
1I
0P
1J
0Q
0G
1N
1'
0(
#320000
1$
13
1)
#340000
0$
03
0)
1P
1Q
0N
1(
#360000
1$
13
1)
02
01
00
#380000
0$
03
0)
12
11
10
0I
0B
1;
0P
0J
0C
1<
0Q
1G
1@
09
1N
0'
0&
1%
0(
#400000
1$
13
1)
#420000
0$
03
0)
1P
1Q
0N
1(
#440000
1$
13
1)
02
#460000
0$
03
0)
12
1I
0P
1J
0Q
0G
1N
1'
0(
#480000
1$
13
1)
#500000
0$
03
0)
1P
1Q
0N
1(
#520000
1$
13
1)
02
01
#540000
0$
03
0)
12
11
0I
1B
0P
0J
1C
0Q
1G
0@
1N
0'
1&
0(
#560000
1$
13
1)
#580000
0$
03
0)
1P
1Q
0N
1(
#600000
1$
13
1)
02
#620000
0$
03
0)
12
1I
0P
1J
0Q
0G
1N
1'
0(
#640000
1$
13
1)
#660000
0$
03
0)
1P
1Q
0N
1(
#680000
1$
13
1)
02
01
00
#700000
0$
03
0)
12
11
10
0I
0B
0;
0P
0J
0C
0<
0Q
1G
1@
19
1N
0'
0&
0%
0(
#720000
1$
13
1)
#740000
0$
03
0)
1P
1Q
0N
1(
#760000
1$
13
1)
02
#780000
0$
03
0)
12
1I
0P
1J
0Q
0G
1N
1'
0(
#800000
1$
13
1)
#820000
0$
03
0)
1P
1Q
0N
1(
#840000
1$
13
1)
02
01
#860000
0$
03
0)
12
11
0I
1B
0P
0J
1C
0Q
1G
0@
1N
0'
1&
0(
#880000
1$
13
1)
#900000
0$
03
0)
1P
1Q
0N
1(
#920000
1$
13
1)
02
#940000
0$
03
0)
12
1I
0P
1J
0Q
0G
1N
1'
0(
#960000
1$
13
1)
#980000
0$
03
0)
1P
1Q
0N
1(
