Lab6/simulation/qsim/Lab6.msim.vcd
$comment
	File created using the following command:
		vcd file Lab6.msim.vcd -direction
$end
$date
	Fri Apr 20 15:17:38 2018
$end
$version
	ModelSim Version 10.1d
$end
$timescale
	1ps
$end
$scope module Lab6_vlg_vec_tst $end
$var reg 1 ! CLR $end
$var reg 1 " LD $end
$var reg 4 # in [3:0] $end
$var wire 1 $ out [3] $end
$var wire 1 % out [2] $end
$var wire 1 & out [1] $end
$var wire 1 ' out [0] $end
$var wire 1 ( sampler $end
$scope module i1 $end
$var wire 1 ) gnd $end
$var wire 1 * vcc $end
$var wire 1 + unknown $end
$var tri1 1 , devclrn $end
$var tri1 1 - devpor $end
$var tri1 1 . devoe $end
$var wire 1 / LD~combout $end
$var wire 1 0 LD~clkctrl_outclk $end
$var wire 1 1 nxt[0]~feeder_combout $end
$var wire 1 2 CLR~combout $end
$var wire 1 3 CLR~clkctrl_outclk $end
$var wire 1 4 nxt[1]~feeder_combout $end
$var wire 1 5 nxt[2]~feeder_combout $end
$var wire 1 6 nxt [3] $end
$var wire 1 7 nxt [2] $end
$var wire 1 8 nxt [1] $end
$var wire 1 9 nxt [0] $end
$var wire 1 : in~combout [3] $end
$var wire 1 ; in~combout [2] $end
$var wire 1 < in~combout [1] $end
$var wire 1 = in~combout [0] $end
$upscope $end
$upscope $end
$enddefinitions $end
#0
$dumpvars
0!
0"
b0 #
0'
0&
0%
0$
x(
0)
1*
x+
1,
1-
1.
0/
00
01
02
03
04
05
09
08
07
06
0=
0<
0;
0:
$end
#45000
1"
1/
10
0(
#50000
b1 #
1=
1(
11
#70000
0"
0/
00
0(
#95000
1"
1/
10
1(
19
1'
#100000
b11 #
b10 #
0=
1<
0(
01
14
#120000
0"
0/
00
1(
#145000
1"
1/
10
0(
18
09
1&
0'
#150000
b11 #
1=
1(
11
#170000
0"
0/
00
0(
#195000
1"
1/
10
1(
19
1'
#200000
b111 #
b101 #
b100 #
0=
0<
1;
0(
01
04
15
#220000
0"
0/
00
1(
#245000
1"
1/
10
0(
17
08
09
1%
0&
0'
#250000
b101 #
1=
1(
11
#270000
0"
0/
00
0(
#295000
1"
1/
10
1(
19
1'
#300000
b111 #
b110 #
0=
1<
0(
01
14
#320000
0"
0/
00
1(
#345000
1"
1/
10
0(
18
09
1&
0'
#350000
b111 #
1=
1(
11
#370000
0"
0/
00
0(
#395000
1"
1/
10
1(
19
1'
#400000
b1111 #
b1011 #
b1001 #
b1000 #
0=
0<
0;
1:
0(
01
04
05
#420000
0"
0/
00
1(
#445000
1"
1/
10
0(
16
07
08
09
1$
0%
0&
0'
#450000
b1001 #
1=
1(
11
#470000
0"
0/
00
0(
#495000
1"
1/
10
1(
19
1'
#500000
b1011 #
b1010 #
0=
1<
0(
01
14
#520000
0"
0/
00
1(
#545000
1"
1/
10
0(
18
09
1&
0'
#550000
b1011 #
1=
1(
11
#570000
0"
0/
00
0(
#595000
1"
1/
10
1(
19
1'
#600000
b1111 #
b1101 #
b1100 #
0=
0<
1;
0(
01
04
15
#620000
0"
0/
00
1(
#645000
1"
1/
10
0(
17
08
09
1%
0&
0'
#650000
b1101 #
1=
1(
11
#670000
0"
0/
00
0(
#695000
1"
1/
10
1(
19
1'
#700000
b1111 #
b1110 #
0=
1<
0(
01
14
#720000
0"
0/
00
1(
#745000
1"
1/
10
0(
18
09
1&
0'
#750000
b1111 #
1=
1(
11
#770000
0"
0/
00
0(
#795000
1"
1/
10
1(
19
1'
#800000
b111 #
b11 #
b1 #
b0 #
0=
0<
0;
0:
0(
01
04
05
#820000
0"
0/
00
1(
#850000
b1 #
1=
0(
11
#900000
b11 #
b10 #
0=
1<
1(
01
14
#950000
b11 #
1=
0(
11
#980000
b1 #
b0 #
0=
0<
1(
01
04
